https://www.lazada.co.th/products/nize-i287868517-s471538453.html?search=1
https://www.lazada.co.th/products/knorr-80-6-i204016713-s307838709.html?search=1
https://www.lazada.co.th/products/500-i278913578-s449125432.html?search=1
https://www.lazada.co.th/products/healthy-boy-400-i204871970-s309413487.html?search=1
https://www.lazada.co.th/products/125-black-vinegar-sauce-125ml-i338554971-s655996741.html?search=1
https://www.lazada.co.th/products/lobo-50-6-i9789193-s12265042.html?search=1
https://www.lazada.co.th/products/lobo-50-6-i9789174-s12265020.html?search=1
https://www.lazada.co.th/products/30-x-10-i284540524-s463484523.html?search=1
https://www.lazada.co.th/products/lobo-240-6-i100270598-s100315587.html?search=1
https://www.lazada.co.th/products/lobo-1-i169792655-s211230583.html?search=1
https://www.lazada.co.th/products/12-70-100-i294290488-s494716215.html?search=1
https://www.lazada.co.th/products/150-i273767097-s433755074.html?search=1
https://www.lazada.co.th/products/40-x-10-i284474853-s463488263.html?search=1
https://www.lazada.co.th/products/openland-100-i327382514-s625838031.html?search=1
https://www.lazada.co.th/products/350-6-i251801853-s388604260.html?search=1
https://www.lazada.co.th/products/openland-500-i289732833-s480086325.html?search=1
https://www.lazada.co.th/products/openland-100-i289454602-s479616244.html?search=1
https://www.lazada.co.th/products/nize-i287796917-s471504883.html?search=1
https://www.lazada.co.th/products/mymallone-250-i296038721-s502072733.html?search=1
https://www.lazada.co.th/products/openland-100-i289766861-s480178175.html?search=1
https://www.lazada.co.th/products/ajinomoto-80-i204871977-s309413494.html?search=1
https://www.lazada.co.th/products/nguan-chiang-300-i204871946-s309413463.html?search=1
https://www.lazada.co.th/products/22-i280747298-s454615972.html?search=1
https://www.lazada.co.th/products/560-i280750124-s454617926.html?search=1
https://www.lazada.co.th/products/12-i318030322-s601620924.html?search=1
https://www.lazada.co.th/products/150-i273714874-s433754131.html?search=1
https://www.lazada.co.th/products/knorr-400-i149999031-s174697229.html?search=1
https://www.lazada.co.th/products/nize-i285542721-s465784238.html?search=1
https://www.lazada.co.th/products/openland-100-i289754304-s480084894.html?search=1
https://www.lazada.co.th/products/gmp-i108324385-s109766945.html?search=1
https://www.lazada.co.th/products/lobo-50-6-i9789158-s12265004.html?search=1
https://www.lazada.co.th/products/-i212727002-s321328658.html?search=1
https://www.lazada.co.th/products/40-x-10-i284490483-s463374052.html?search=1
https://www.lazada.co.th/products/500-i278918005-s449118714.html?search=1
https://www.lazada.co.th/products/100-ground-sichuan-pepper-500-i295456352-s497848805.html?search=1
https://www.lazada.co.th/products/125-i336996350-s652328970.html?search=1
https://www.lazada.co.th/products/preedashop-marumiya-furikake-523g5x2-i293746716-s493252083.html?search=1
https://www.lazada.co.th/products/electro48-sweet-slim-150g-i298906676-s512644567.html?search=1
https://www.lazada.co.th/products/knorr-450-i204013896-s307836065.html?search=1
https://www.lazada.co.th/products/12-300-i328270056-s628634923.html?search=1
https://www.lazada.co.th/products/lobo-1-1-i169796468-s211234654.html?search=1
https://www.lazada.co.th/products/healthy-boy-1-350-i204871972-s309413489.html?search=1
https://www.lazada.co.th/products/1000g-i270340178-s422974061.html?search=1
https://www.lazada.co.th/products/60-x-10-i285048356-s464782315.html?search=1
https://www.lazada.co.th/products/lobo-25-6-i9789242-s12265120.html?search=1
https://www.lazada.co.th/products/openland-100-i289422430-s479512697.html?search=1
https://www.lazada.co.th/products/12-i262688962-s404799831.html?search=1
https://www.lazada.co.th/products/lobo-50-6-i9763430-s12230417.html?search=1
https://www.lazada.co.th/products/lobo-50-6-i9784537-s12260304.html?search=1
https://www.lazada.co.th/products/1000g-i270339141-s422935861.html?search=1
https://www.lazada.co.th/products/lobo-65-6-i9789210-s12265059.html?search=1
https://www.lazada.co.th/products/openland-100-i289472093-s479608474.html?search=1
https://www.lazada.co.th/products/lobo-50-6-i9094008-s11357440.html?search=1
https://www.lazada.co.th/products/knorr-80-6-i204016712-s307838708.html?search=1
https://www.lazada.co.th/products/1-i264687567-s411071789.html?search=1
https://www.lazada.co.th/products/thychef-200-i8733334-s10957052.html?search=1
https://www.lazada.co.th/products/lobo-50-6-i9789143-s12264977.html?search=1
https://www.lazada.co.th/products/80-i278899953-s449132132.html?search=1
https://www.lazada.co.th/products/lobo-25-6-i9094121-s11357589.html?search=1
https://www.lazada.co.th/products/lobo-30-6-i9790051-s12266082.html?search=1
https://www.lazada.co.th/products/40-x-5-i284018381-s461948864.html?search=1
https://www.lazada.co.th/products/openland-100-i289436324-s479550271.html?search=1
https://www.lazada.co.th/products/12-100-i281756859-s458569889.html?search=1
https://www.lazada.co.th/products/puykeng-tenderizer-powder-for-all-kind-of-meat-50-i258050414-s397807438.html?search=1
https://www.lazada.co.th/products/knorr-natural-70-x-6-i243069497-s372837934.html?search=1
https://www.lazada.co.th/products/openland-100-i289432831-s479566877.html?search=1
https://www.lazada.co.th/products/knorr-450-i204013897-s307836066.html?search=1
https://www.lazada.co.th/products/165-10-i284112854-s462248623.html?search=1
https://www.lazada.co.th/products/puykeng-powder-for-fried-noodle-with-gravy-rad-nah-100-i258031172-s397753555.html?search=1
https://www.lazada.co.th/products/75-10-i284126717-s462238546.html?search=1
https://www.lazada.co.th/products/thychef-200-i8733654-s10957437.html?search=1
https://www.lazada.co.th/products/lobo-70-6-i9789904-s12265927.html?search=1
https://www.lazada.co.th/products/korma-curry-i270502748-s423560108.html?search=1
https://www.lazada.co.th/products/-i274051006-s434704741.html?search=1
https://www.lazada.co.th/products/puykeng-steak-powder-for-all-kind-of-meat-50-i258050543-s397815140.html?search=1
https://www.lazada.co.th/products/openland-100-i289440445-s479588185.html?search=1
https://www.lazada.co.th/products/goodlife-500-i249168669-s384161904.html?search=1
https://www.lazada.co.th/products/-i323010144-s614420378.html?search=1
https://www.lazada.co.th/products/lobo-30-6-i9789282-s12265197.html?search=1
https://www.lazada.co.th/products/lobo-120-6-i9789403-s12265345.html?search=1
https://www.lazada.co.th/products/120-i149999030-s174697228.html?search=1
https://www.lazada.co.th/products/mymallone-67-6-i296028910-s502066483.html?search=1
https://www.lazada.co.th/products/openland-100-i289756483-s480100981.html?search=1
https://www.lazada.co.th/products/-i254289851-s392515782.html?search=1
https://www.lazada.co.th/products/openland-250-i289442468-s479576473.html?search=1
https://www.lazada.co.th/products/lobo-30-6-i9789228-s12265102.html?search=1
https://www.lazada.co.th/products/70-10-i326070667-s620674787.html?search=1
https://www.lazada.co.th/products/2-kats-200-i100915723-s101020506.html?search=1
https://www.lazada.co.th/products/minishopthailand-90-i298452883-s511814696.html?search=1
https://www.lazada.co.th/products/la-rambla-apple-cider-250-ml-i267833410-s419022199.html?search=1
https://www.lazada.co.th/products/6-i297916712-s510488654.html?search=1
https://www.lazada.co.th/products/openland-100-i290062983-s480942072.html?search=1
https://www.lazada.co.th/products/6-i103721319-s104156943.html?search=1
https://www.lazada.co.th/products/nize-i285574594-s465782613.html?search=1
https://www.lazada.co.th/products/khunmaeju-i256066227-s394894315.html?search=1
https://www.lazada.co.th/products/75-10-i284124455-s462196816.html?search=1
https://www.lazada.co.th/products/sempio-500-i336472615-s651622692.html?search=1
https://www.lazada.co.th/products/30-x-10-i284568202-s463496420.html?search=1
https://www.lazada.co.th/products/preedashop-haechandle-gochaujang-500-i293746697-s493252027.html?search=1
https://www.lazada.co.th/products/knorr-natural-120-x-6-i251813096-s388615123.html?search=1
https://www.lazada.co.th/products/35-i280740634-s454629321.html?search=1
https://www.lazada.co.th/products/lobo-100-6-i9789878-s12265900.html?search=1
https://www.lazada.co.th/products/minishopthailand-1200-i298462794-s511818692.html?search=1
https://www.lazada.co.th/products/minishopthailand-1-i298474650-s511812782.html?search=1
https://www.lazada.co.th/products/6-i103196045-s103573802.html?search=1
https://www.lazada.co.th/products/knorr-120-6-i204013918-s307836087.html?search=1
https://www.lazada.co.th/products/1-i262691511-s404804590.html?search=1
https://www.lazada.co.th/products/openland-250-i289786413-s480162687.html?search=1
https://www.lazada.co.th/products/60-x-10-i285046312-s464752915.html?search=1
https://www.lazada.co.th/products/minishopthailand-260-i298444994-s511842118.html?search=1
https://www.lazada.co.th/products/lobo-75-6-i9790013-s12266038.html?search=1
https://www.lazada.co.th/products/300-2-196-i264166911-s409768662.html?search=1
https://www.lazada.co.th/products/5-d-diamond-vinigar-5-5-i245898116-s378608627.html?search=1
https://www.lazada.co.th/products/6-i103716460-s104150981.html?search=1
https://www.lazada.co.th/products/300-i336444983-s651622483.html?search=1
https://www.lazada.co.th/products/lobo-35-6-i9094156-s11357632.html?search=1
https://www.lazada.co.th/products/mymallone-2-i296040737-s502086463.html?search=1
https://www.lazada.co.th/products/nize-i285590091-s465838050.html?search=1
https://www.lazada.co.th/products/nize-i289794939-s480260299.html?search=1
https://www.lazada.co.th/products/shimaya-katsuo-dashi-karyu-120-g-40-g-x-3-i292562937-s491050575.html?search=1
https://www.lazada.co.th/products/healthy-boy-800-i204871967-s309413484.html?search=1
https://www.lazada.co.th/products/30-200-healthy-fit-all-purpose-marinade-sauce-200-ml-i338548953-s655992635.html?search=1
https://www.lazada.co.th/products/165-healthy-boy-brand-soybean-paste-165-g-i338576196-s655974877.html?search=1
https://www.lazada.co.th/products/150-healthy-boy-brand-black-soy-sauce-150ml-i338582014-s655976960.html?search=1
https://www.lazada.co.th/products/unionmallshop-67-6-i296076264-s502140446.html?search=1
https://www.lazada.co.th/products/mymallone-155-i296020994-s502094098.html?search=1
https://www.lazada.co.th/products/mymallone-390-i296024946-s502062720.html?search=1
https://www.lazada.co.th/products/mymallone-1-i296048425-s502076456.html?search=1
https://www.lazada.co.th/products/43-i135955298-s153998687.html?search=1
https://www.lazada.co.th/products/320cc-i270321116-s422885666.html?search=1
https://www.lazada.co.th/products/1-i336478452-s651640325.html?search=1
https://www.lazada.co.th/products/420-x-6-i282678669-s460429169.html?search=1
https://www.lazada.co.th/products/50-i221049061-s337195684.html?search=1
https://www.lazada.co.th/products/mymallone-1-i296026890-s502052716.html?search=1
https://www.lazada.co.th/products/minishopthailand-50-i296122016-s502438614.html?search=1
https://www.lazada.co.th/products/350g-i338578135-s655980922.html?search=1
https://www.lazada.co.th/products/600-i336480486-s651608962.html?search=1
https://www.lazada.co.th/products/500-i336468660-s651642214.html?search=1
https://www.lazada.co.th/products/minishopthailand-60-500-i298480036-s511832368.html?search=1
https://www.lazada.co.th/products/-i263717670-s408030308.html?search=1
https://www.lazada.co.th/products/1000g-i270327101-s422905690.html?search=1
https://www.lazada.co.th/products/openland-250-i289460534-s479614245.html?search=1
https://www.lazada.co.th/products/ajinomoto-210-i204871978-s309413495.html?search=1
https://www.lazada.co.th/products/homekitchen-1-i296016906-s502040947.html?search=1
https://www.lazada.co.th/products/openland-250-i289764922-s480182015.html?search=1
https://www.lazada.co.th/products/1000-i277860049-s444847661.html?search=1
https://www.lazada.co.th/products/70-x-5-i284070558-s462092285.html?search=1
https://www.lazada.co.th/products/openland-100-i289426392-s479516844.html?search=1
https://www.lazada.co.th/products/90-x-5-i310284056-s551484436.html?search=1
https://www.lazada.co.th/products/citric-acid-food-grade-i222213116-s339189466.html?search=1
https://www.lazada.co.th/products/1-i264694579-s411088899.html?search=1
https://www.lazada.co.th/products/puykeng-the-instant-panang-curry-powder-100-i253240271-s390826272.html?search=1
https://www.lazada.co.th/products/nize-i285560945-s465808601.html?search=1
https://www.lazada.co.th/products/openland-250-i289448294-s479564714.html?search=1
https://www.lazada.co.th/products/openland-100-i289736713-s480074467.html?search=1
https://www.lazada.co.th/products/75-x-10-i282682665-s460416855.html?search=1
https://www.lazada.co.th/products/ajinomoto-80-20-i311310662-s554288538.html?search=1
https://www.lazada.co.th/products/60-x-5-i284086366-s462064814.html?search=1
https://www.lazada.co.th/products/garnish-250ml-x-36-i299342004-s514092318.html?search=1
https://www.lazada.co.th/products/lobo-100-6-i135929932-s153944372.html?search=1
https://www.lazada.co.th/products/300g-i270335190-s422961919.html?search=1
https://www.lazada.co.th/products/lobo-1-i169792704-s211230685.html?search=1
https://www.lazada.co.th/products/knorr-80-6-i204016713-s307838709.html?search=1
https://www.lazada.co.th/products/500-i278913578-s449125432.html?search=1
https://www.lazada.co.th/products/healthy-boy-400-i204871970-s309413487.html?search=1
https://www.lazada.co.th/products/openland-250-i289442468-s479576473.html?search=1
https://www.lazada.co.th/products/openland-100-i289436324-s479550271.html?search=1
https://www.lazada.co.th/products/puykeng-tenderizer-powder-for-all-kind-of-meat-50-i258050414-s397807438.html?search=1
https://www.lazada.co.th/products/125-black-vinegar-sauce-125ml-i338554971-s655996741.html?search=1
https://www.lazada.co.th/products/nize-i287868517-s471538453.html?search=1
https://www.lazada.co.th/products/lobo-50-6-i9789193-s12265042.html?search=1
https://www.lazada.co.th/products/lobo-50-6-i9789174-s12265020.html?search=1
https://www.lazada.co.th/products/openland-100-i289756483-s480100981.html?search=1
https://www.lazada.co.th/products/30-x-10-i284540524-s463484523.html?search=1
https://www.lazada.co.th/products/40-x-10-i284474853-s463488263.html?search=1
https://www.lazada.co.th/products/12-70-100-i294290488-s494716215.html?search=1
https://www.lazada.co.th/products/100-ground-sichuan-pepper-500-i295456352-s497848805.html?search=1
https://www.lazada.co.th/products/openland-100-i327382514-s625838031.html?search=1
https://www.lazada.co.th/products/350-6-i251801853-s388604260.html?search=1
https://www.lazada.co.th/products/openland-500-i289732833-s480086325.html?search=1
https://www.lazada.co.th/products/150-i273714874-s433754131.html?search=1
https://www.lazada.co.th/products/150-i273767097-s433755074.html?search=1
https://www.lazada.co.th/products/nize-i287796917-s471504883.html?search=1
https://www.lazada.co.th/products/openland-100-i289454602-s479616244.html?search=1
https://www.lazada.co.th/products/ajinomoto-80-i204871977-s309413494.html?search=1
https://www.lazada.co.th/products/mymallone-250-i296038721-s502072733.html?search=1
https://www.lazada.co.th/products/openland-100-i289766861-s480178175.html?search=1
https://www.lazada.co.th/products/nguan-chiang-300-i204871946-s309413463.html?search=1
https://www.lazada.co.th/products/22-i280747298-s454615972.html?search=1
https://www.lazada.co.th/products/560-i280750124-s454617926.html?search=1
https://www.lazada.co.th/products/12-i318030322-s601620924.html?search=1
https://www.lazada.co.th/products/-i212727002-s321328658.html?search=1
https://www.lazada.co.th/products/knorr-400-i149999031-s174697229.html?search=1
https://www.lazada.co.th/products/nize-i285542721-s465784238.html?search=1
https://www.lazada.co.th/products/openland-100-i289754304-s480084894.html?search=1
https://www.lazada.co.th/products/gmp-i108324385-s109766945.html?search=1
https://www.lazada.co.th/products/lobo-50-6-i9789158-s12265004.html?search=1
https://www.lazada.co.th/products/40-x-10-i284490483-s463374052.html?search=1
https://www.lazada.co.th/products/500-i278918005-s449118714.html?search=1
https://www.lazada.co.th/products/1000g-i270340178-s422974061.html?search=1
https://www.lazada.co.th/products/125-i336996350-s652328970.html?search=1
https://www.lazada.co.th/products/preedashop-marumiya-furikake-523g5x2-i293746716-s493252083.html?search=1
https://www.lazada.co.th/products/electro48-sweet-slim-150g-i298906676-s512644567.html?search=1
https://www.lazada.co.th/products/12-i262688962-s404799831.html?search=1
https://www.lazada.co.th/products/knorr-450-i204013896-s307836065.html?search=1
https://www.lazada.co.th/products/12-300-i328270056-s628634923.html?search=1
https://www.lazada.co.th/products/lobo-1-1-i169796468-s211234654.html?search=1
https://www.lazada.co.th/products/healthy-boy-1-350-i204871972-s309413489.html?search=1
https://www.lazada.co.th/products/60-x-10-i285048356-s464782315.html?search=1
https://www.lazada.co.th/products/lobo-25-6-i9789242-s12265120.html?search=1
https://www.lazada.co.th/products/openland-100-i289422430-s479512697.html?search=1
https://www.lazada.co.th/products/1000g-i270339141-s422935861.html?search=1
https://www.lazada.co.th/products/70-10-i326070667-s620674787.html?search=1
https://www.lazada.co.th/products/2-kats-200-i100915723-s101020506.html?search=1
https://www.lazada.co.th/products/minishopthailand-90-i298452883-s511814696.html?search=1
https://www.lazada.co.th/products/la-rambla-apple-cider-250-ml-i267833410-s419022199.html?search=1
https://www.lazada.co.th/products/6-i297916712-s510488654.html?search=1
https://www.lazada.co.th/products/openland-100-i290062983-s480942072.html?search=1
https://www.lazada.co.th/products/6-i103721319-s104156943.html?search=1
https://www.lazada.co.th/products/nize-i285574594-s465782613.html?search=1
https://www.lazada.co.th/products/khunmaeju-i256066227-s394894315.html?search=1
https://www.lazada.co.th/products/75-10-i284124455-s462196816.html?search=1
https://www.lazada.co.th/products/sempio-500-i336472615-s651622692.html?search=1
https://www.lazada.co.th/products/30-x-10-i284568202-s463496420.html?search=1
https://www.lazada.co.th/products/preedashop-haechandle-gochaujang-500-i293746697-s493252027.html?search=1
https://www.lazada.co.th/products/knorr-natural-120-x-6-i251813096-s388615123.html?search=1
https://www.lazada.co.th/products/35-i280740634-s454629321.html?search=1
https://www.lazada.co.th/products/lobo-100-6-i9789878-s12265900.html?search=1
https://www.lazada.co.th/products/minishopthailand-1200-i298462794-s511818692.html?search=1
https://www.lazada.co.th/products/minishopthailand-1-i298474650-s511812782.html?search=1
https://www.lazada.co.th/products/6-i103196045-s103573802.html?search=1
https://www.lazada.co.th/products/knorr-120-6-i204013918-s307836087.html?search=1
https://www.lazada.co.th/products/1-i262691511-s404804590.html?search=1
https://www.lazada.co.th/products/openland-250-i289786413-s480162687.html?search=1
https://www.lazada.co.th/products/60-x-10-i285046312-s464752915.html?search=1
https://www.lazada.co.th/products/minishopthailand-260-i298444994-s511842118.html?search=1
https://www.lazada.co.th/products/lobo-75-6-i9790013-s12266038.html?search=1
https://www.lazada.co.th/products/300-2-196-i264166911-s409768662.html?search=1
https://www.lazada.co.th/products/5-d-diamond-vinigar-5-5-i245898116-s378608627.html?search=1
https://www.lazada.co.th/products/openland-250-i289448294-s479564714.html?search=1
https://www.lazada.co.th/products/openland-100-i289736713-s480074467.html?search=1
https://www.lazada.co.th/products/75-x-10-i282682665-s460416855.html?search=1
https://www.lazada.co.th/products/lobo-100-6-i135929932-s153944372.html?search=1
https://www.lazada.co.th/products/ajinomoto-80-20-i311310662-s554288538.html?search=1
https://www.lazada.co.th/products/60-x-5-i284086366-s462064814.html?search=1
https://www.lazada.co.th/products/garnish-250ml-x-36-i299342004-s514092318.html?search=1
https://www.lazada.co.th/products/300g-i270335190-s422961919.html?search=1
https://www.lazada.co.th/products/lobo-1-i169792704-s211230685.html?search=1
https://www.lazada.co.th/products/120-i149999030-s174697228.html?search=1
https://www.lazada.co.th/products/mymallone-67-6-i296028910-s502066483.html?search=1
https://www.lazada.co.th/products/-i254289851-s392515782.html?search=1
https://www.lazada.co.th/products/lobo-240-6-i100270598-s100315587.html?search=1
https://www.lazada.co.th/products/lobo-1-i169792655-s211230583.html?search=1
https://www.lazada.co.th/products/lobo-50-6-i9763430-s12230417.html?search=1
https://www.lazada.co.th/products/lobo-50-6-i9784537-s12260304.html?search=1
https://www.lazada.co.th/products/lobo-65-6-i9789210-s12265059.html?search=1
https://www.lazada.co.th/products/openland-100-i289472093-s479608474.html?search=1
https://www.lazada.co.th/products/lobo-50-6-i9094008-s11357440.html?search=1
https://www.lazada.co.th/products/knorr-80-6-i204016712-s307838708.html?search=1
https://www.lazada.co.th/products/1-i264687567-s411071789.html?search=1
https://www.lazada.co.th/products/thychef-200-i8733334-s10957052.html?search=1
https://www.lazada.co.th/products/lobo-50-6-i9789143-s12264977.html?search=1
https://www.lazada.co.th/products/80-i278899953-s449132132.html?search=1
https://www.lazada.co.th/products/lobo-25-6-i9094121-s11357589.html?search=1
https://www.lazada.co.th/products/lobo-30-6-i9790051-s12266082.html?search=1
https://www.lazada.co.th/products/40-x-5-i284018381-s461948864.html?search=1
https://www.lazada.co.th/products/12-100-i281756859-s458569889.html?search=1
https://www.lazada.co.th/products/knorr-natural-70-x-6-i243069497-s372837934.html?search=1
https://www.lazada.co.th/products/-i274051006-s434704741.html?search=1
https://www.lazada.co.th/products/openland-100-i289432831-s479566877.html?search=1
https://www.lazada.co.th/products/knorr-450-i204013897-s307836066.html?search=1
https://www.lazada.co.th/products/165-10-i284112854-s462248623.html?search=1
https://www.lazada.co.th/products/puykeng-powder-for-fried-noodle-with-gravy-rad-nah-100-i258031172-s397753555.html?search=1
https://www.lazada.co.th/products/75-10-i284126717-s462238546.html?search=1
https://www.lazada.co.th/products/thychef-200-i8733654-s10957437.html?search=1
https://www.lazada.co.th/products/lobo-70-6-i9789904-s12265927.html?search=1
https://www.lazada.co.th/products/korma-curry-i270502748-s423560108.html?search=1
https://www.lazada.co.th/products/openland-100-i289440445-s479588185.html?search=1
https://www.lazada.co.th/products/puykeng-steak-powder-for-all-kind-of-meat-50-i258050543-s397815140.html?search=1
https://www.lazada.co.th/products/goodlife-500-i249168669-s384161904.html?search=1
https://www.lazada.co.th/products/-i323010144-s614420378.html?search=1
https://www.lazada.co.th/products/lobo-30-6-i9789282-s12265197.html?search=1
https://www.lazada.co.th/products/lobo-120-6-i9789403-s12265345.html?search=1
